{
    "content": [
        {
            "currentPage" : 0,
            "totalPage" : 5,
            "pageSize" : 20,
            "totalElements" : 30,
            "content" : [
                {
                    "id" : 0,
                    "title" : "키오스크 편하게 익히기",
                    "region" : "[서울, 종로]",
                    "author" : "김가은",
                    "image" : "대표 이미지 링크",
                    "created" : "2023-08-07 14:55:54",
                    "updated" : "2023-08-07 14:55:54"
                },
                {
                    "id" : 0,
                    "title" : "키오스크 편하게 익히기",
                    "region" : "[서울, 관악]",
                    "author" : "김가은",
                    "image" : "https://images.unsplash.com/photo-1461749280684-dccba630e2f6?ixlib=rb-4.0.3&ixid=M3wxMjA3fDB8MHxwaG90by1wYWdlfHx8fGVufDB8fHx8fA%3D%3D&auto=format&fit=crop&w=869&q=80",
                    "created" : "2023-08-07 14:55:54",
                    "updated" : "2023-08-07 14:55:54"
                }
            ]
        }
    ]
  }
  