{
  "currentPage": 0,
  "totalPage": 5,
  "pageSize": 20,
  "totalElements": 30,
  "content": [
    {
      "id": 0,
      "title": "아니 내강의 들은 사람중에",
      "nickname": "김가은",
      "created": "2023-08-07 14:55:54",
      "updated": "2023-08-07 14:55:54"
    },
    {
      "id": 1,
      "title": "미쳤음",
      "nickname": "김용민",
      "created": "2023-08-07 14:55:54",
      "updated": "2023-08-07 14:55:54"
    },
    {
      "id": 2,
      "title": "미쳤음",
      "nickname": "김용민",
      "created": "2023-08-07 14:55:54",
      "updated": "2023-08-07 14:55:54"
    },
    {
      "id": 3,
      "title": "미쳤음",
      "nickname": "김용민",
      "created": "2023-08-07 14:55:54",
      "updated": "2023-08-07 14:55:54"
    },
    {
      "id": 4,
      "title": "미쳤음",
      "nickname": "김용민",
      "created": "2023-08-07 14:55:54",
      "updated": "2023-08-07 14:55:54"
    },
    {
      "id": 5,
      "title": "미쳤음",
      "nickname": "김용민",
      "created": "2023-08-07 14:55:54",
      "updated": "2023-08-07 14:55:54"
    },
    {
      "id": 6,
      "title": "미쳤음",
      "nickname": "김용민",
      "created": "2023-08-07 14:55:54",
      "updated": "2023-08-07 14:55:54"
    },
    {
      "id": 7,
      "title": "미쳤음",
      "nickname": "김용민",
      "created": "2023-08-07 14:55:54",
      "updated": "2023-08-07 14:55:54"
    },
    {
      "id": 8,
      "title": "미쳤음",
      "nickname": "김용민",
      "created": "2023-08-07 14:55:54",
      "updated": "2023-08-07 14:55:54"
    },
    {
      "id": 9,
      "title": "미쳤음",
      "nickname": "김용민",
      "created": "2023-08-07 14:55:54",
      "updated": "2023-08-07 14:55:54"
    }
  ]
}
